{
    "swagger": "2.0",
    "info": {
        "description": "This is a sample swagger for Book store",
        "title": "Book Store Example API",
        "contact": {},
        "version": "1.0"
    },
    "host": "localhost:3000",
    "paths": {
        "/api/v1/book": {
            "post": {
                "security": [
                    {
                        "ApiKeyAuth": []
                    }
                ],
                "description": "New book creation process",
                "consumes": [
                    "multipart/form-data"
                ],
                "produces": [
                    "application/json"
                ],
                "tags": [
                    "book"
                ],
                "summary": "Create new book.",
                "responses": {
                    "201": {
                        "description": "Created",
                        "schema": {
                            "type": "string"
                        }
                    }
                }
            }
        },
        "/api/v1/book/personal": {
            "get": {
                "security": [
                    {
                        "ApiKeyAuth": []
                    }
                ],
                "description": "the process which return all personal books by user from token",
                "consumes": [
                    "application/json"
                ],
                "produces": [
                    "application/json"
                ],
                "tags": [
                    "book"
                ],
                "summary": "Get all personal books.",
                "responses": {
                    "200": {
                        "description": "OK",
                        "schema": {
                            "type": "array",
                            "items": {
                                "$ref": "#/definitions/serializer.Book"
                            }
                        }
                    }
                }
            }
        },
        "/api/v1/user/login": {
            "post": {
                "description": "login process",
                "consumes": [
                    "application/json"
                ],
                "produces": [
                    "application/json"
                ],
                "tags": [
                    "user"
                ],
                "summary": "Login.",
                "parameters": [
                    {
                        "description": "request data",
                        "name": "json",
                        "in": "body",
                        "schema": {
                            "$ref": "#/definitions/dto.LoginDTO"
                        }
                    }
                ],
                "responses": {
                    "200": {
                        "description": "OK",
                        "schema": {
                            "$ref": "#/definitions/serializer.Login"
                        }
                    }
                }
            }
        },
        "/api/v1/user/sign-up": {
            "post": {
                "description": "sign-up process",
                "consumes": [
                    "application/json"
                ],
                "produces": [
                    "application/json"
                ],
                "tags": [
                    "user"
                ],
                "summary": "Sign-up.",
                "parameters": [
                    {
                        "description": "request data",
                        "name": "json",
                        "in": "body",
                        "schema": {
                            "$ref": "#/definitions/dto.SignupDTO"
                        }
                    }
                ],
                "responses": {
                    "201": {
                        "description": "Created",
                        "schema": {
                            "$ref": "#/definitions/serializer.SignUp"
                        }
                    }
                }
            }
        },
        "/health": {
            "get": {
                "description": "get the status of server.",
                "consumes": [
                    "*/*"
                ],
                "produces": [
                    "application/json"
                ],
                "tags": [
                    "health"
                ],
                "summary": "Show the status of server.",
                "responses": {
                    "200": {
                        "description": "OK",
                        "schema": {
                            "$ref": "#/definitions/serializer.HealthCheck"
                        }
                    }
                }
            }
        }
    },
    "definitions": {
        "dto.LoginDTO": {
            "type": "object",
            "required": [
                "email",
                "password"
            ],
            "properties": {
                "email": {
                    "type": "string"
                },
                "password": {
                    "type": "string"
                }
            }
        },
        "dto.SignupDTO": {
            "type": "object",
            "required": [
                "email",
                "firstName",
                "lastName",
                "password"
            ],
            "properties": {
                "email": {
                    "type": "string"
                },
                "firstName": {
                    "type": "string",
                    "maxLength": 32,
                    "minLength": 3
                },
                "lastName": {
                    "type": "string",
                    "maxLength": 32,
                    "minLength": 3
                },
                "password": {
                    "type": "string"
                }
            }
        },
        "serializer.Book": {
            "type": "object",
            "properties": {
                "createdAt": {
                    "type": "string"
                },
                "description": {
                    "type": "string"
                },
                "id": {
                    "type": "integer"
                },
                "link": {
                    "type": "string"
                },
                "title": {
                    "type": "string"
                },
                "updatedAt": {
                    "type": "string"
                }
            }
        },
        "serializer.HealthCheck": {
            "type": "object",
            "properties": {
                "message": {
                    "type": "string"
                }
            }
        },
        "serializer.Login": {
            "type": "object",
            "properties": {
                "token": {
                    "type": "string"
                }
            }
        },
        "serializer.SignUp": {
            "type": "object",
            "properties": {
                "email": {
                    "type": "string"
                },
                "firstName": {
                    "type": "string"
                },
                "id": {
                    "type": "integer"
                },
                "lastName": {
                    "type": "string"
                }
            }
        }
    },
    "securityDefinitions": {
        "ApiKeyAuth": {
            "type": "apiKey",
            "name": "Authorization",
            "in": "header"
        }
    }
}